…
    ## ── Conflicts ─────────────────────────────────────────────────────────────────────────────── tidyverse_conflicts() ──
    ## ✖ dplyr::filter() masks stats::filter()
    ## ✖ dplyr::lag()    masks stats::lag()

``` r
library(dplyr)
library(gapminder)
library(knitr)
```

``` r
gapminder
```

    ## # A tibble: 1,704 x 6
    ##    country     continent  year lifeExp      pop gdpPercap
    ##    <fct>       <fct>     <int>   <dbl>    <int>     <dbl>
    ##  1 Afghanistan Asia       1952    28.8  8425333      779.
    ##  2 Afghanistan Asia       1957    30.3  9240934      821.
    ##  3 Afghanistan Asia       1962    32.0 10267083      853.
    ##  4 Afghanistan Asia       1967    34.0 11537966      836.
    ##  5 Afghanistan Asia       1972    36.1 13079460      740.
    ##  6 Afghanistan Asia       1977    38.4 14880372      786.
    ##  7 Afghanistan Asia       1982    39.9 12881816      978.
    ##  8 Afghanistan Asia       1987    40.8 13867957      852.
    ##  9 Afghanistan Asia       1992    41.7 16317921      649.
    ## 10 Afghanistan Asia       1997    41.8 22227415      635.
    ## # ... with 1,694 more rows
…
Life expectancy of Oceania &gt; Europe &gt; Americas &gt; Asia &gt; Africa

Task 4: Continents with the number of people who had life expectancy below the mean life expectancy.

``` r
gapminder %>%
  group_by(year, continent) %>%
  summarise(mean_lifeExp = mean(lifeExp), 
            low_lifeExp = sum(lifeExp < mean_lifeExp))
```

    ## # A tibble: 60 x 4
    ## # Groups:   year [?]
    ##     year continent mean_lifeExp low_lifeExp
    ##    <int> <fct>            <dbl>       <int>
    ##  1  1952 Africa            39.1          27
    ##  2  1952 Americas          53.3          12
    ##  3  1952 Asia              46.3          19
    ##  4  1952 Europe            64.4          12
    ##  5  1952 Oceania           69.3           1
    ##  6  1957 Africa            41.3          28
    ##  7  1957 Americas          56.0          12
    ##  8  1957 Asia              49.3          18
    ##  9  1957 Europe            66.7          12
    ## 10  1957 Oceania           70.3           1
    ## # ... with 50 more rows
